[{"line":2,"elements":[{"line":4,"name":"","description":"","type":"background","keyword":"Background","steps":[{"name":"url 'https:\/\/reqres.in\/api\/'","result":{"duration":6438143,"status":"passed"},"match":{"location":"karate","arguments":[]},"keyword":"*","line":5,"doc_string":{"content_type":"","value":"18:28:56.043 karate.env system property was:","line":5}}]},{"line":7,"name":"Get the details of User with header","description":"","id":"get-the-details-of-user-with-header","type":"scenario","keyword":"Scenario","steps":[{"name":"path \"\/users\/2\"","result":{"duration":10232189,"status":"passed"},"match":{"location":"karate","arguments":[]},"keyword":"Given","line":8},{"name":"method GET","result":{"duration":1326632145,"status":"passed"},"match":{"location":"karate","arguments":[]},"keyword":"When","line":9,"doc_string":{"content_type":"","value":"18:28:56.626 request:\n1 > GET https:\/\/reqres.in\/api\/users\/2\n1 > Accept-Encoding: gzip,deflate\n1 > Connection: Keep-Alive\n1 > Host: reqres.in\n1 > User-Agent: Apache-HttpClient\/4.5.12 (Java\/1.8.0_301)\n\n18:28:57.469 response time in milliseconds: 842.00\n1 < 200\n1 < Access-Control-Allow-Origin: *\n1 < CF-Cache-Status: REVALIDATED\n1 < CF-RAY: 755654ebd8eb8fa7-KNU\n1 < Cache-Control: max-age=14400\n1 < Connection: keep-alive\n1 < Content-Type: application\/json; charset=utf-8\n1 < Date: Wed, 05 Oct 2022 12:58:57 GMT\n1 < Etag: W\/\"118-pbdwwFo9SKNhD3Lx5iHJyngpq00\"\n1 < NEL: {\"success_fraction\":0,\"report_to\":\"cf-nel\",\"max_age\":604800}\n1 < Report-To: {\"endpoints\":[{\"url\":\"https:\\\/\\\/a.nel.cloudflare.com\\\/report\\\/v3?s=%2F9WsRENbtfGtBgmays112GCvd4W7AIKnkaRzDqdhuS4X3AC5K9ZGpWzw%2BGyKpTT54JwWN5QxInOTjWzKpNgocCy%2FW%2FZ3BLgG%2B4nN6GLbHgF8MiX6LLEBk7mFcQ%3D%3D\"}],\"group\":\"cf-nel\",\"max_age\":604800}\n1 < Server: cloudflare\n1 < Transfer-Encoding: chunked\n1 < Vary: Accept-Encoding\n1 < Via: 1.1 vegur\n1 < X-Powered-By: Express\n{\"data\":{\"id\":2,\"email\":\"janet.weaver@reqres.in\",\"first_name\":\"Janet\",\"last_name\":\"Weaver\",\"avatar\":\"https:\/\/reqres.in\/img\/faces\/2-image.jpg\"},\"support\":{\"url\":\"https:\/\/reqres.in\/#support-heading\",\"text\":\"To keep ReqRes free, contributions towards server costs are appreciated!\"}}","line":9}},{"name":"header Accept = 'application\/json'","result":{"duration":282595,"status":"passed"},"match":{"location":"karate","arguments":[]},"keyword":"Then","line":10},{"name":"def request_headers = {Connection: 'Keep-Alive', Accept: 'application\/json'}","result":{"duration":207955,"status":"passed"},"match":{"location":"karate","arguments":[]},"keyword":"And","line":11},{"name":"headers request_headers","result":{"duration":272277,"status":"passed"},"match":{"location":"karate","arguments":[]},"keyword":"Then","line":12},{"name":"status 200","result":{"duration":7584,"status":"passed"},"match":{"location":"karate","arguments":[]},"keyword":"Then","line":13},{"name":"print  \"API Response is \" + response","result":{"duration":1619348,"status":"passed"},"match":{"location":"karate","arguments":[]},"keyword":"And","line":14,"doc_string":{"content_type":"","value":"18:28:57.472 [print] API Response is {\"data\":{\"last_name\":\"Weaver\",\"id\":2,\"avatar\":\"https:\\\/\\\/reqres.in\\\/img\\\/faces\\\/2-image.jpg\",\"first_name\":\"Janet\",\"email\":\"janet.weaver@reqres.in\"},\"support\":{\"text\":\"To keep ReqRes free, contributions towards server costs are appreciated!\",\"url\":\"https:\\\/\\\/reqres.in\\\/#support-heading\"}}","line":14}},{"name":"print  \"Response status is \" + responseStatus","result":{"duration":540393,"status":"passed"},"match":{"location":"karate","arguments":[]},"keyword":"And","line":15,"doc_string":{"content_type":"","value":"18:28:57.472 [print] Response status is 200","line":15}},{"name":"print  \"Response time is \" + responseTime","result":{"duration":2618715,"status":"passed"},"match":{"location":"karate","arguments":[]},"keyword":"And","line":16,"doc_string":{"content_type":"","value":"18:28:57.475 [print] Response time is 842","line":16}}]},{"line":4,"name":"","description":"","type":"background","keyword":"Background","steps":[{"name":"url 'https:\/\/reqres.in\/api\/'","result":{"duration":275834,"status":"passed"},"match":{"location":"karate","arguments":[]},"keyword":"*","line":5,"doc_string":{"content_type":"","value":"18:28:56.566 karate.env system property was:","line":5}}]},{"line":18,"name":"Get the details of User with parameter and assertions in API response","description":"","id":"get-the-details-of-user-with-parameter-and-assertions-in-api-response","type":"scenario","keyword":"Scenario","steps":[{"name":"path \"\/users\"","result":{"duration":184483,"status":"passed"},"match":{"location":"karate","arguments":[]},"keyword":"Given","line":19},{"name":"param per_page = 6","result":{"duration":10456454,"status":"passed"},"match":{"location":"karate","arguments":[]},"keyword":"And","line":20},{"name":"method GET","result":{"duration":604002845,"status":"passed"},"match":{"location":"karate","arguments":[]},"keyword":"When","line":21,"doc_string":{"content_type":"","value":"18:28:56.626 request:\n1 > GET https:\/\/reqres.in\/api\/users?per_page=6\n1 > Accept-Encoding: gzip,deflate\n1 > Connection: Keep-Alive\n1 > Host: reqres.in\n1 > User-Agent: Apache-HttpClient\/4.5.12 (Java\/1.8.0_301)\n\n18:28:57.182 response time in milliseconds: 554.49\n1 < 200\n1 < Access-Control-Allow-Origin: *\n1 < Age: 6768\n1 < CF-Cache-Status: HIT\n1 < CF-RAY: 755654ebee158fbc-KNU\n1 < Cache-Control: max-age=14400\n1 < Connection: keep-alive\n1 < Content-Type: application\/json; charset=utf-8\n1 < Date: Wed, 05 Oct 2022 12:58:57 GMT\n1 < Etag: W\/\"3e4-2RLXvr5wTg9YQ6aH95CkYoFNuO8\"\n1 < NEL: {\"success_fraction\":0,\"report_to\":\"cf-nel\",\"max_age\":604800}\n1 < Report-To: {\"endpoints\":[{\"url\":\"https:\\\/\\\/a.nel.cloudflare.com\\\/report\\\/v3?s=RboDQbjTXq9Y0LkvLF5O8uNaaVzNUtP%2B%2FdQVdl2%2B8cIedObGSyXCOx5fLPAY2tAiUXSWP7a4WdlXJwNHQOP36Hp3uKogGqS6rjtcvKdJ8PUxUmkTGZyuAdKU%2Fw%3D%3D\"}],\"group\":\"cf-nel\",\"max_age\":604800}\n1 < Server: cloudflare\n1 < Transfer-Encoding: chunked\n1 < Vary: Accept-Encoding\n1 < Via: 1.1 vegur\n1 < X-Powered-By: Express\n{\"page\":1,\"per_page\":6,\"total\":12,\"total_pages\":2,\"data\":[{\"id\":1,\"email\":\"george.bluth@reqres.in\",\"first_name\":\"George\",\"last_name\":\"Bluth\",\"avatar\":\"https:\/\/reqres.in\/img\/faces\/1-image.jpg\"},{\"id\":2,\"email\":\"janet.weaver@reqres.in\",\"first_name\":\"Janet\",\"last_name\":\"Weaver\",\"avatar\":\"https:\/\/reqres.in\/img\/faces\/2-image.jpg\"},{\"id\":3,\"email\":\"emma.wong@reqres.in\",\"first_name\":\"Emma\",\"last_name\":\"Wong\",\"avatar\":\"https:\/\/reqres.in\/img\/faces\/3-image.jpg\"},{\"id\":4,\"email\":\"eve.holt@reqres.in\",\"first_name\":\"Eve\",\"last_name\":\"Holt\",\"avatar\":\"https:\/\/reqres.in\/img\/faces\/4-image.jpg\"},{\"id\":5,\"email\":\"charles.morris@reqres.in\",\"first_name\":\"Charles\",\"last_name\":\"Morris\",\"avatar\":\"https:\/\/reqres.in\/img\/faces\/5-image.jpg\"},{\"id\":6,\"email\":\"tracey.ramos@reqres.in\",\"first_name\":\"Tracey\",\"last_name\":\"Ramos\",\"avatar\":\"https:\/\/reqres.in\/img\/faces\/6-image.jpg\"}],\"support\":{\"url\":\"https:\/\/reqres.in\/#support-heading\",\"text\":\"To keep ReqRes free, contributions towards server costs are appreciated!\"}}","line":21}},{"name":"header Accept = 'application\/json'","result":{"duration":1624062,"status":"passed"},"match":{"location":"karate","arguments":[]},"keyword":"Then","line":22},{"name":"status 200","result":{"duration":11025,"status":"passed"},"match":{"location":"karate","arguments":[]},"keyword":"Then","line":23},{"name":"print  \"API Response is \" + response","result":{"duration":2880893,"status":"passed"},"match":{"location":"karate","arguments":[]},"keyword":"And","line":24,"doc_string":{"content_type":"","value":"18:28:57.187 [print] API Response is {\"per_page\":6,\"total\":12,\"data\":[{\"last_name\":\"Bluth\",\"id\":1,\"avatar\":\"https:\\\/\\\/reqres.in\\\/img\\\/faces\\\/1-image.jpg\",\"first_name\":\"George\",\"email\":\"george.bluth@reqres.in\"},{\"last_name\":\"Weaver\",\"id\":2,\"avatar\":\"https:\\\/\\\/reqres.in\\\/img\\\/faces\\\/2-image.jpg\",\"first_name\":\"Janet\",\"email\":\"janet.weaver@reqres.in\"},{\"last_name\":\"Wong\",\"id\":3,\"avatar\":\"https:\\\/\\\/reqres.in\\\/img\\\/faces\\\/3-image.jpg\",\"first_name\":\"Emma\",\"email\":\"emma.wong@reqres.in\"},{\"last_name\":\"Holt\",\"id\":4,\"avatar\":\"https:\\\/\\\/reqres.in\\\/img\\\/faces\\\/4-image.jpg\",\"first_name\":\"Eve\",\"email\":\"eve.holt@reqres.in\"},{\"last_name\":\"Morris\",\"id\":5,\"avatar\":\"https:\\\/\\\/reqres.in\\\/img\\\/faces\\\/5-image.jpg\",\"first_name\":\"Charles\",\"email\":\"charles.morris@reqres.in\"},{\"last_name\":\"Ramos\",\"id\":6,\"avatar\":\"https:\\\/\\\/reqres.in\\\/img\\\/faces\\\/6-image.jpg\",\"first_name\":\"Tracey\",\"email\":\"tracey.ramos@reqres.in\"}],\"page\":1,\"total_pages\":2,\"support\":{\"text\":\"To keep ReqRes free, contributions towards server costs are appreciated!\",\"url\":\"https:\\\/\\\/reqres.in\\\/#support-heading\"}}","line":24}},{"name":"print  \"Response status is \" + responseStatus","result":{"duration":3269278,"status":"passed"},"match":{"location":"karate","arguments":[]},"keyword":"And","line":25,"doc_string":{"content_type":"","value":"18:28:57.191 [print] Response status is 200","line":25}},{"name":"match  response.data[0].first_name != null","result":{"duration":2292550,"status":"passed"},"match":{"location":"karate","arguments":[]},"keyword":"And","line":26},{"name":"assert response.data.length == 6","result":{"duration":9461970,"status":"passed"},"match":{"location":"karate","arguments":[]},"keyword":"And","line":27}]},{"line":4,"name":"","description":"","type":"background","keyword":"Background","steps":[{"name":"url 'https:\/\/reqres.in\/api\/'","result":{"duration":104697,"status":"passed"},"match":{"location":"karate","arguments":[]},"keyword":"*","line":5,"doc_string":{"content_type":"","value":"18:28:57.210 karate.env system property was:","line":5}}]},{"line":29,"name":"Get the details of User with conditional logic checks and Loops","description":"","id":"get-the-details-of-user-with-conditional-logic-checks-and-loops","type":"scenario","keyword":"Scenario","steps":[{"name":"path \"\/users\"","result":{"duration":83151,"status":"passed"},"match":{"location":"karate","arguments":[]},"keyword":"Given","line":30},{"name":"param per_page = 6","result":{"duration":80589,"status":"passed"},"match":{"location":"karate","arguments":[]},"keyword":"And","line":31},{"name":"method GET","result":{"duration":164043345,"status":"passed"},"match":{"location":"karate","arguments":[]},"keyword":"When","line":32,"doc_string":{"content_type":"","value":"18:28:57.212 request:\n1 > GET https:\/\/reqres.in\/api\/users?per_page=6\n1 > Accept-Encoding: gzip,deflate\n1 > Connection: Keep-Alive\n1 > Host: reqres.in\n1 > User-Agent: Apache-HttpClient\/4.5.12 (Java\/1.8.0_301)\n\n18:28:57.375 response time in milliseconds: 161.31\n1 < 200\n1 < Access-Control-Allow-Origin: *\n1 < Age: 6768\n1 < CF-Cache-Status: HIT\n1 < CF-RAY: 755654ed39e78f98-KNU\n1 < Cache-Control: max-age=14400\n1 < Connection: keep-alive\n1 < Content-Type: application\/json; charset=utf-8\n1 < Date: Wed, 05 Oct 2022 12:58:57 GMT\n1 < Etag: W\/\"3e4-2RLXvr5wTg9YQ6aH95CkYoFNuO8\"\n1 < NEL: {\"success_fraction\":0,\"report_to\":\"cf-nel\",\"max_age\":604800}\n1 < Report-To: {\"endpoints\":[{\"url\":\"https:\\\/\\\/a.nel.cloudflare.com\\\/report\\\/v3?s=iC2PM7%2FvCXIQVaCGY%2BrBu4H3NJR0VHpT5muzj3bKL%2BURaiK%2F07JP0ICLJgdbA%2BLGK1JwJtHk9MXOT9ETx9R82Fq%2BjhAPySZLL8ARhiSmgwtzF6M8qeqmrjuOoQ%3D%3D\"}],\"group\":\"cf-nel\",\"max_age\":604800}\n1 < Server: cloudflare\n1 < Transfer-Encoding: chunked\n1 < Vary: Accept-Encoding\n1 < Via: 1.1 vegur\n1 < X-Powered-By: Express\n{\"page\":1,\"per_page\":6,\"total\":12,\"total_pages\":2,\"data\":[{\"id\":1,\"email\":\"george.bluth@reqres.in\",\"first_name\":\"George\",\"last_name\":\"Bluth\",\"avatar\":\"https:\/\/reqres.in\/img\/faces\/1-image.jpg\"},{\"id\":2,\"email\":\"janet.weaver@reqres.in\",\"first_name\":\"Janet\",\"last_name\":\"Weaver\",\"avatar\":\"https:\/\/reqres.in\/img\/faces\/2-image.jpg\"},{\"id\":3,\"email\":\"emma.wong@reqres.in\",\"first_name\":\"Emma\",\"last_name\":\"Wong\",\"avatar\":\"https:\/\/reqres.in\/img\/faces\/3-image.jpg\"},{\"id\":4,\"email\":\"eve.holt@reqres.in\",\"first_name\":\"Eve\",\"last_name\":\"Holt\",\"avatar\":\"https:\/\/reqres.in\/img\/faces\/4-image.jpg\"},{\"id\":5,\"email\":\"charles.morris@reqres.in\",\"first_name\":\"Charles\",\"last_name\":\"Morris\",\"avatar\":\"https:\/\/reqres.in\/img\/faces\/5-image.jpg\"},{\"id\":6,\"email\":\"tracey.ramos@reqres.in\",\"first_name\":\"Tracey\",\"last_name\":\"Ramos\",\"avatar\":\"https:\/\/reqres.in\/img\/faces\/6-image.jpg\"}],\"support\":{\"url\":\"https:\/\/reqres.in\/#support-heading\",\"text\":\"To keep ReqRes free, contributions towards server costs are appreciated!\"}}","line":32}},{"name":"header Accept = 'application\/json'","result":{"duration":336972,"status":"passed"},"match":{"location":"karate","arguments":[]},"keyword":"Then","line":33},{"name":"status 200","result":{"duration":7388,"status":"passed"},"match":{"location":"karate","arguments":[]},"keyword":"Then","line":34},{"name":"def firstName = []","result":{"duration":214962,"status":"passed"},"match":{"location":"karate","arguments":[]},"keyword":"When","line":35},{"name":"eval for (var i=0;i<response.data.length;i++) if (response.data.length == 6) {firstName.add(response.data[i].first_name)} else {karate.fail('Invalid response')}","result":{"duration":34441491,"status":"passed"},"match":{"location":"karate","arguments":[]},"keyword":"And","line":36},{"name":"print firstName","result":{"duration":607089,"status":"passed"},"match":{"location":"karate","arguments":[]},"keyword":"And","line":37,"doc_string":{"content_type":"","value":"18:28:57.411 [print] [\n  \"George\",\n  \"Janet\",\n  \"Emma\",\n  \"Eve\",\n  \"Charles\",\n  \"Tracey\"\n]","line":37}},{"name":"match  response.data[0].first_name != null","result":{"duration":929505,"status":"passed"},"match":{"location":"karate","arguments":[]},"keyword":"And","line":38},{"name":"assert response.data.length == 6","result":{"duration":1488803,"status":"passed"},"match":{"location":"karate","arguments":[]},"keyword":"And","line":39}]},{"line":4,"name":"","description":"","type":"background","keyword":"Background","steps":[{"name":"url 'https:\/\/reqres.in\/api\/'","result":{"duration":380672,"status":"passed"},"match":{"location":"karate","arguments":[]},"keyword":"*","line":5,"doc_string":{"content_type":"","value":"18:28:57.424 karate.env system property was:","line":5}}]},{"line":41,"name":"Get the details of User with header Authorization token","description":"","id":"get-the-details-of-user-with-header-authorization-token","type":"scenario","keyword":"Scenario","steps":[{"name":"path \"\/users\/2\"","result":{"duration":235861,"status":"passed"},"match":{"location":"karate","arguments":[]},"keyword":"Given","line":42},{"name":"method GET","result":{"duration":184337861,"status":"passed"},"match":{"location":"karate","arguments":[]},"keyword":"When","line":43,"doc_string":{"content_type":"","value":"18:28:57.428 request:\n1 > GET https:\/\/reqres.in\/api\/users\/2\n1 > Accept-Encoding: gzip,deflate\n1 > Connection: Keep-Alive\n1 > Host: reqres.in\n1 > User-Agent: Apache-HttpClient\/4.5.12 (Java\/1.8.0_301)\n\n18:28:57.610 response time in milliseconds: 179.77\n1 < 200\n1 < Access-Control-Allow-Origin: *\n1 < Age: 0\n1 < CF-Cache-Status: HIT\n1 < CF-RAY: 755654eeaa068fb8-KNU\n1 < Cache-Control: max-age=14400\n1 < Connection: keep-alive\n1 < Content-Type: application\/json; charset=utf-8\n1 < Date: Wed, 05 Oct 2022 12:58:57 GMT\n1 < Etag: W\/\"118-pbdwwFo9SKNhD3Lx5iHJyngpq00\"\n1 < NEL: {\"success_fraction\":0,\"report_to\":\"cf-nel\",\"max_age\":604800}\n1 < Report-To: {\"endpoints\":[{\"url\":\"https:\\\/\\\/a.nel.cloudflare.com\\\/report\\\/v3?s=YSLIyEFtgvMDO%2F2Hr0oyyTHACyZWD8f1iLdH9Qi%2B7F%2B9b9NdyMEKFHFQFq7d11oISgQjBNTwXMXcgSEsbs4CjA%2BoZXYM%2FhIBZqNSAr9JJ6C5QEJT%2FWe9iKQr9Q%3D%3D\"}],\"group\":\"cf-nel\",\"max_age\":604800}\n1 < Server: cloudflare\n1 < Transfer-Encoding: chunked\n1 < Vary: Accept-Encoding\n1 < Via: 1.1 vegur\n1 < X-Powered-By: Express\n{\"data\":{\"id\":2,\"email\":\"janet.weaver@reqres.in\",\"first_name\":\"Janet\",\"last_name\":\"Weaver\",\"avatar\":\"https:\/\/reqres.in\/img\/faces\/2-image.jpg\"},\"support\":{\"url\":\"https:\/\/reqres.in\/#support-heading\",\"text\":\"To keep ReqRes free, contributions towards server costs are appreciated!\"}}","line":43}},{"name":"print \"access token is \" + accessToken","result":{"duration":13834591,"status":"passed"},"match":{"location":"karate","arguments":[]},"keyword":"And","line":44,"doc_string":{"content_type":"","value":"18:28:57.624 [print]","line":44}},{"name":"def response = call read('UserAuthentication.feature@token')","result":{"duration":543432494,"status":"passed"},"match":{"location":"karate","arguments":[]},"keyword":"And","line":45},{"name":"src\/test\/java\/features\/UserAuthentication.feature","result":{"duration":0,"status":"passed"},"match":{"location":"karate","arguments":[]},"keyword":"","line":45},{"name":"url 'https:\/\/reqres.in\/api\/'","result":{"duration":6021654,"status":"passed"},"match":{"location":"karate","arguments":[]},"keyword":"> *","line":5},{"name":"path \"\/register\"","result":{"duration":307080,"status":"passed"},"match":{"location":"karate","arguments":[]},"keyword":"> Given","line":9},{"name":"request {\"email\": \"eve.holt@reqres.in\",\"password\": \"pistol\"}","result":{"duration":378972,"status":"passed"},"match":{"location":"karate","arguments":[]},"keyword":"> And","line":10},{"name":"method POST","result":{"duration":519959131,"status":"passed"},"match":{"location":"karate","arguments":[]},"keyword":"> When","line":11,"doc_string":{"content_type":"","value":"18:28:57.650 request:\n1 > POST https:\/\/reqres.in\/api\/register\n1 > Accept-Encoding: gzip,deflate\n1 > Connection: Keep-Alive\n1 > Content-Length: 50\n1 > Content-Type: application\/json; charset=UTF-8\n1 > Host: reqres.in\n1 > User-Agent: Apache-HttpClient\/4.5.12 (Java\/1.8.0_301)\n{\"email\":\"eve.holt@reqres.in\",\"password\":\"pistol\"}\n\n18:28:58.167 response time in milliseconds: 516.33\n1 < 200\n1 < Access-Control-Allow-Origin: *\n1 < CF-Cache-Status: DYNAMIC\n1 < CF-RAY: 755654f0082c8fac-KNU\n1 < Connection: keep-alive\n1 < Content-Length: 36\n1 < Content-Type: application\/json; charset=utf-8\n1 < Date: Wed, 05 Oct 2022 12:58:58 GMT\n1 < Etag: W\/\"24-4iP0za1geN2he+ohu8F0FhCjLks\"\n1 < NEL: {\"success_fraction\":0,\"report_to\":\"cf-nel\",\"max_age\":604800}\n1 < Report-To: {\"endpoints\":[{\"url\":\"https:\\\/\\\/a.nel.cloudflare.com\\\/report\\\/v3?s=jz4ldXmdMxH%2B1RN0u7r4AXWXET%2FVDqccwVCu7jlg6cu6voztltY4cuOawlHBGv0W4j0tMAia53YI1WDU1FmUw0%2FI%2BE6WOGJNq5NFPAeHiN2rC6%2BTHd44gw9sLg%3D%3D\"}],\"group\":\"cf-nel\",\"max_age\":604800}\n1 < Server: cloudflare\n1 < Via: 1.1 vegur\n1 < X-Powered-By: Express\n{\"id\":4,\"token\":\"QpwL5tke4Pnpja7X4\"}","line":11}},{"name":"status 200","result":{"duration":7707,"status":"passed"},"match":{"location":"karate","arguments":[]},"keyword":"> Then","line":12},{"name":"def accessToken = response.token","result":{"duration":441924,"status":"passed"},"match":{"location":"karate","arguments":[]},"keyword":"> *","line":13},{"name":"print \"AccessToken is:\" + response.accessToken","result":{"duration":3622364,"status":"passed"},"match":{"location":"karate","arguments":[]},"keyword":"And","line":46,"doc_string":{"content_type":"","value":"18:28:58.172 [print] AccessToken is:QpwL5tke4Pnpja7X4","line":46}},{"name":"header Authorization = 'Bearer' + response.token","result":{"duration":3038437,"status":"passed"},"match":{"location":"karate","arguments":[]},"keyword":"And","line":47},{"name":"status 200","result":{"duration":6094,"status":"passed"},"match":{"location":"karate","arguments":[]},"keyword":"Then","line":48},{"name":"print  \"Response status is \" + responseStatus","result":{"duration":374643,"status":"passed"},"match":{"location":"karate","arguments":[]},"keyword":"And","line":49,"doc_string":{"content_type":"","value":"18:28:58.175 [print] Response status is 200","line":49}},{"name":"print  \"Response time is \" + responseTime","result":{"duration":308625,"status":"passed"},"match":{"location":"karate","arguments":[]},"keyword":"And","line":50,"doc_string":{"content_type":"","value":"18:28:58.176 [print] Response time is 180","line":50}}]}],"name":"src\/test\/java\/features\/GETAPI.feature","description":"Get API call","id":"get-api-call","keyword":"Feature","uri":"src\/test\/java\/features\/GETAPI.feature","tags":[{"name":"@regression","line":1}]}]